<?xml version="1.0" encoding="UTF-8" standalone="no"?>
<!-- Created with Inkscape (http://www.inkscape.org/) -->

<svg
   xmlns:dc="http://purl.org/dc/elements/1.1/"
   xmlns:cc="http://creativecommons.org/ns#"
   xmlns:rdf="http://www.w3.org/1999/02/22-rdf-syntax-ns#"
   xmlns:svg="http://www.w3.org/2000/svg"
   xmlns="http://www.w3.org/2000/svg"
   xmlns:sodipodi="http://sodipodi.sourceforge.net/DTD/sodipodi-0.dtd"
   xmlns:inkscape="http://www.inkscape.org/namespaces/inkscape"
   width="24"
   height="24"
   viewBox="0 0 6.3499999 6.3500002"
   version="1.1"
   id="svg8"
   inkscape:version="0.92.4 (5da689c313, 2019-01-14)"
   sodipodi:docname="my_events_peace_sign.svg">
  <defs
     id="defs2" />
  <sodipodi:namedview
     id="base"
     pagecolor="#ffffff"
     bordercolor="#666666"
     borderopacity="1.0"
     inkscape:pageopacity="0.0"
     inkscape:pageshadow="2"
     inkscape:zoom="7.9195959"
     inkscape:cx="15.887331"
     inkscape:cy="3.4720391"
     inkscape:document-units="px"
     inkscape:current-layer="layer1"
     showgrid="false"
     units="px"
     inkscape:window-width="960"
     inkscape:window-height="1001"
     inkscape:window-x="951"
     inkscape:window-y="-9"
     inkscape:window-maximized="0" />
  <metadata
     id="metadata5">
    <rdf:RDF>
      <cc:Work
         rdf:about="">
        <dc:format>image/svg+xml</dc:format>
        <dc:type
           rdf:resource="http://purl.org/dc/dcmitype/StillImage" />
        <dc:title></dc:title>
      </cc:Work>
    </rdf:RDF>
  </metadata>
  <g
     inkscape:label="Layer 1"
     inkscape:groupmode="layer"
     id="layer1"
     transform="translate(0,-290.64999)">
    <path
       id="rect1207"
       style="opacity:0.98000004;fill:none;fill-opacity:1;fill-rule:nonzero;stroke:#000000;stroke-width:0.23633012;stroke-linecap:round;stroke-linejoin:round;stroke-miterlimit:4;stroke-dasharray:none;stroke-dashoffset:0;stroke-opacity:1;paint-order:normal"
       d="m 1.4686841,294.88871 c -0.354476,0 -0.63963098,0.28564 -0.63963098,0.63978 v 0.51046 H 2.8032321 v -0.51046 c 0,-0.35414 -0.285293,-0.63978 -0.639635,-0.63978 z m 0.992867,-0.74046 c 0,0.35511 -0.28804,0.64382 -0.643308,0.64382 -0.3553,0 -0.64331,-0.28852 -0.64331,-0.64382 0,-0.35511 0.288183,-0.64388 0.64331,-0.64388 0.355251,0 0.643308,0.28709 0.643308,0.64388 z m 2.0228001,-2.53553 v 0.57439 m -1.6329221,-0.57439 v 0.57439 m 0.937464,2.16057 c -0.09663,0.0679 -0.1265981,0.0949 -0.1727279,0.20023 m 0.2525289,-0.0385 -0.016391,-0.17704 -0.2250291,-0.0814 c 0,0 -0.104793,-0.0546 -0.122514,-0.12265 -0.017841,-0.0546 -0.017841,-0.0949 -0.0097,-0.14043 0.016391,-0.0817 0.04902,-0.0817 0.118408,-0.0817 l 0.5875009,0.2205 c 0,0 0.03666,0.004 0.0517,0.0951 0.016391,0.0949 0.04488,0.22435 0.03813,0.275 -0.0071,0.0546 -0.017841,0.10895 -0.05036,0.15375 -0.02992,0.0546 -0.3547189,0.27741 -0.3547189,0.27741 0,0 -0.03955,0.0289 -0.08713,0.12264 -0.04903,0.0951 -0.06808,0.2041 -0.06808,0.2041 m -0.08984,-1.01136 c 0,0 -0.0087,0.0289 -0.03425,0.0546 -0.08034,0.0679 -0.163612,0.0385 -0.2493939,0.0289 -0.08984,0.0679 -0.2383481,0.0546 -0.3140481,9e-4 -0.1265972,-0.10894 -0.1587352,-0.23545 -0.1334022,-0.38502 0.01197,-0.10893 0.07353,-0.17028 0.163607,-0.17704 0.06398,-0.004 0.09663,0.004 0.09663,0.004 0.04488,-0.0679 0.119803,-0.13756 0.195453,-0.13602 0.05442,0.004 0.0953,-0.0137 0.1385699,0.0137 l -0.024601,-0.65607 c 0.05447,-0.18376 0.2908869,-0.1389 0.3172791,-0.0385 0.0067,0.0289 0.06533,0.60305 0.06533,0.60305 0.00209,0.0385 0.06808,0.18237 0.111596,0.13604 0.01496,-0.0289 0.3379782,-0.62886 0.3379782,-0.62886 0.1252598,-0.0949 0.2902109,-0.0137 0.2725039,0.14573 -0.019291,0.0546 -0.274289,0.75412 -0.274289,0.75412 l -0.051709,0.22046 m -1.4989701,1.05361 0.51522,-0.40577 c -0.107539,-0.004 -0.234145,-9.1e-4 -0.319207,-0.0679 -0.09529,-0.0816 -0.119803,-0.15235 -0.107552,-0.27742 0.02173,-0.0949 0.03813,-0.17948 0.07488,-0.26824 m -1.098065,-1.65226 h 3.688489 m -3.35788,-0.6983 c -0.190816,0 -0.342754,0.15239 -0.342754,0.34303 v 1.2836 c 0.0024,0 0.0047,-2.4e-4 0.0073,-2.4e-4 0.355251,0 0.643309,0.28852 0.643309,0.64383 0,0.35511 -0.287893,0.64386 -0.643309,0.64386 -0.0024,0 -0.0047,-2.9e-4 -0.0073,-2.9e-4 v 0.0951 h 0.352547 c 0.35448,0 0.639633,0.28607 0.639633,0.63974 v 0.0546 H 5.178194 c 0.1907259,0 0.3427529,-0.15237 0.3427529,-0.34303 v -3.02328 c 0,-0.1905 -0.152027,-0.34306 -0.3427529,-0.34306 z"
       inkscape:connector-curvature="0"
       sodipodi:nodetypes="ssccsssscsssccccccccccccccccccccccccccccccccccccccccccccscsscccsscssscc" />
  </g>
</svg>
